<svg xmlns="http://www.w3.org/2000/svg" width="133.243" height="46.158" viewBox="0 0 133.243 46.158">
  <path id="Path_28872" data-name="Path 28872" d="M261.64,205.8H143.2a7.418,7.418,0,0,0-7.4,7.4v31.351a7.418,7.418,0,0,0,7.4,7.4h3.92v-7.4a1.315,1.315,0,0,1,1.306-1.306H259.9a1.315,1.315,0,0,1,1.306,1.306v7.4h.436a7.418,7.418,0,0,0,7.4-7.4V213.2a7.418,7.418,0,0,0-7.4-7.4Zm-8.709,6.1h3.483a1.306,1.306,0,0,1,0,2.612h-3.483a1.306,1.306,0,0,1,0-2.612ZM151.91,210.152a4.789,4.789,0,1,1-4.789,4.789A4.786,4.786,0,0,1,151.91,210.152ZM261.2,239.326a1.315,1.315,0,0,1-1.306,1.306H148.427a1.315,1.315,0,0,1-1.306-1.306v-8.709a1.315,1.315,0,0,1,1.306-1.306H259.9a1.315,1.315,0,0,1,1.306,1.306Z" transform="translate(-135.799 -205.796)" fill="#67686a"/>
</svg>
